[gd_scene load_steps=7 format=2]

[ext_resource path="res://prefab/buildings/base/building.tscn" type="PackedScene" id=1]
[ext_resource path="res://prefab/buildings/castle/castle.gd" type="Script" id=2]
[ext_resource path="res://prefab/buildings/castle/castle.png" type="Texture" id=3]
[ext_resource path="res://assets/sprites/leveling_up_128.png" type="Texture" id=4]
[ext_resource path="res://prefab/gui/satisfaction_bar/satisfaction_bar.tscn" type="PackedScene" id=5]

[sub_resource type="NavigationPolygon" id=1]

vertices = PoolVector2Array( 100, 0, 100, 110, 0, 110, 0, 0 )
polygons = [ PoolIntArray( 0, 1, 2, 3 ) ]
outlines = [ PoolVector2Array( 0, 0, 0, 110, 100, 110, 100, 0 ) ]

[node name="castle" instance=ExtResource( 1 )]

margin_right = 130.0
margin_bottom = 130.0
script = ExtResource( 2 )
RADIUS = 3
SIZE = 2
_MaxLevel = 5
_GoldProductionS = 1

[node name="nav_polygon" parent="."]

navpoly = SubResource( 1 )

[node name="sprite" parent="."]

texture_under = ExtResource( 3 )
texture_progress = ExtResource( 4 )

[node name="center" parent="gui/info_panel"]

editor/display_folded = false

[node name="name" parent="gui/info_panel/center"]

margin_left = 52.0
margin_right = 145.0
text = "Head Quarters"

[node name="Description" parent="gui/info_panel"]

margin_bottom = 583.0
bbcode_text = "The [color=red]Head Quarters[/color] is where the Master lives. You must satisfy all its desires or he will destroy the city and start over at another place.
Every building in a radius of [color=red]5[/color] is connected to the HQ. If it is not fully satisfied, its satisfaction slowly decreases."

[node name="satisfaction_container" parent="gui/info_panel" instance=ExtResource( 5 )]

margin_left = 73.0
margin_top = 67.0
margin_right = 223.0
margin_bottom = 83.0

[node name="building_fsm" parent="."]

GraphData = {

}


