[gd_scene load_steps=3 format=2]

[ext_resource path="res://scenes/scn_loading/scn_loading.gd" type="Script" id=1]
[ext_resource path="res://scenes/scn_loading/loading_picture.png" type="Texture" id=2]

[node name="loading" type="CanvasLayer"]

layer = 1
offset = Vector2( 0, 0 )
rotation = 0.0
scale = Vector2( 1, 1 )
script = ExtResource( 1 )

[node name="loading_picture" type="Sprite" parent="."]

texture = ExtResource( 2 )

[node name="progress_bar" type="ProgressBar" parent="."]

rect_pivot_offset = Vector2( 0, 0 )
rect_clip_content = false
mouse_filter = 0
size_flags_horizontal = 1
size_flags_vertical = 0
min_value = 0.0
max_value = 100.0
step = 1.0
page = 0.0
value = 0.0
exp_edit = false
rounded = false
percent_visible = true


