[gd_scene format=2]

[node name="info_panel" type="CanvasLayer"]

layer = 1
offset = Vector2( 0, 0 )
rotation = 0.0
scale = Vector2( 1, 1 )

[node name="panel" type="Panel" parent="."]

anchor_left = 0.0
anchor_top = 0.0
anchor_right = 0.0
anchor_bottom = 0.0
margin_right = 275.0
margin_bottom = 126.0
rect_pivot_offset = Vector2( 0, 0 )
rect_clip_content = false
mouse_filter = 0
size_flags_horizontal = 1
size_flags_vertical = 1

[node name="container" type="VBoxContainer" parent="panel"]

anchor_left = 0.0
anchor_top = 0.0
anchor_right = 0.0
anchor_bottom = 0.0
margin_right = 275.0
margin_bottom = 40.0
rect_pivot_offset = Vector2( 0, 0 )
rect_clip_content = false
mouse_filter = 1
size_flags_horizontal = 1
size_flags_vertical = 1
alignment = 0

[node name="center" type="CenterContainer" parent="panel/container"]

anchor_left = 0.0
anchor_top = 0.0
anchor_right = 0.0
anchor_bottom = 0.0
margin_right = 275.0
margin_bottom = 14.0
rect_pivot_offset = Vector2( 0, 0 )
rect_clip_content = false
mouse_filter = 0
size_flags_horizontal = 1
size_flags_vertical = 1
use_top_left = false

[node name="name" type="Label" parent="panel/container/center"]

anchor_left = 0.0
anchor_top = 0.0
anchor_right = 0.0
anchor_bottom = 0.0
margin_left = 111.0
margin_right = 163.0
margin_bottom = 14.0
rect_pivot_offset = Vector2( 0, 0 )
rect_clip_content = false
mouse_filter = 2
size_flags_horizontal = 1
size_flags_vertical = 4
text = "Building"
percent_visible = 1.0
lines_skipped = 0
max_lines_visible = -1


