[gd_scene load_steps=2 format=2]

[ext_resource path="res://prefab/buildings/base/FSM/transitions/spawn_to_working/spawn_to_working.gd" type="Script" id=1]

[node name="spawn_to_working" type="Node"]

script = ExtResource( 1 )
path2SourceStates = [ NodePath("") ]
path2TargetState = null
intervalBetweenChecks = -1.0


